"ID","BANK_CODE","BANK_NAME","BRANCH_CODE","BRANCH_NAME","ACCOUNT_TYPE","ACCOUNT_NUMBER","ADDRESS_NAME_KANA","DEDUCT_DATE","MONEY"
"1","138",,"123",,"1","0001234","コキャク1","2013/11/15","5469"
"2","138",,"345",,"1","0005677","コキャク2","2013/11/15","2621"
"3","150",,"123",,"1","0007890","コキャク3","2013/11/15","6696"
"4","150",,"789",,"1","0001111","カ)ホゲホゲ","2013/11/15","5617"
"5","138",,"123",,"1","0001234","コキャク1","2013/12/15","7997"
